{
	"Title": "Programming",
	"Content": [
	{
		"Title": "Programming managers",
		"List": [
			{"nick": "Acumen", "name": "Stuart Walpole"},
			{"nick": "Dak Lozar", "name": "Dave Loeser"},
			{"nick": "h20", "name": "Daniel Wilhelm"},
			{"nick": "Janwas", "name": "Jan Wassenberg"},
			{"nick": "Raj", "name": "Raj Sharma"}
		]
	},
	{
		"Subtitle": "Special thanks to",
		"List": [
			{"nick": "leper", "name": "Georg Kilzer"},
			{"nick": "Ykkrosh", "name": "Philip Taylor"}
		]
	},
	{
		"List": [
			{"nick": "01d55"},
			{"nick": "aBothe", "name": "Alexander Bothe"},
			{"nick": "Acumen", "name": "Stuart Walpole"},
			{"name": "Adrian Fatol"},
			{"nick": "AI-Amsterdam"},
			{"nick": "Alan", "name": "Alan Kemp"},
			{"nick": "Alex", "name": "Alexander Yakobovich"},
			{"nick": "alpha123", "name": "Peter P. Cannici"},
			{"name": "André Puel"},
			{"nick": "andy5995", "name": "Andy Alt"},
			{"nick": "Angen"},
			{"nick": "ArnH", "name": "Arno Hemelhof"},
			{"nick": "Aurium", "name": "Aurélio Heckert"},
			{"nick": "badmadblacksad", "name": "Martin F"},
			{"nick": "bb", "name": "Bouke Jansen"},
			{"nick": "Ben", "name": "Ben Vinegar"},
			{"nick": "Bird"},
			{"nick": "Blue", "name": "Richard Welsh"},
			{"nick": "bmwiedemann"},
			{"nick": "boeseRaupe", "name": "Michael Kluge"},
			{"nick": "bog_dan_ro", "name": "BogDan Vatra"},
			{"nick": "Bonk", "name": "Christopher Ebbert"},
			{"nick": "Boudica"},
			{"nick": "Caius", "name": "Lars Kemmann"},
			{"nick": "Calefaction", "name": "Matt Holmes"},
			{"nick": "Calvinh", "name": "Carl-Johan Höiby"},
			{"nick": "causative", "name": "Bart Parkis"},
			{"name": "Cédric Houbart"},
			{"nick": "Chakakhan", "name": "Kenny Long"},
			{"nick": "Clockwork-Muse", "name": "Stephen A. Imhoff"},
			{"nick": "Cracker78", "name": "Chad Heim"},
			{"nick": "Crynux", "name": "Stephen J. Fewer"},
			{"nick": "cwprogger"},
			{"nick": "cygal", "name": "Quentin Pradet"},
			{"nick": "Dak Lozar", "name": "Dave Loeser"},
			{"nick": "dalerank", "name": "Sergey Kushnirenko"},
			{"nick": "dan", "name": "Dan Strandberg"},
			{"nick": "DanCar", "name": "Daniel Cardenas"},
			{"nick": "danger89", "name": "Melroy van den Berg"},
			{"name": "Daniel Trevitz"},
			{"nick": "Dariost", "name": "Dario Ostuni"},
			{"nick": "Dave", "name": "David Protasowski"},
			{"nick": "dax", "name": "Dacian Fiordean"},
			{"nick": "deebee", "name": "Deepak Anthony"},
			{"nick": "Deiz"},
			{"nick": "Dietger", "name": "Dietger van Antwerpen"},
			{"nick": "DigitalSeraphim", "name": "Nick Owens"},
			{"nick": "dp304"},
			{"nick": "dpiquet", "name": "Damien Piquet"},
			{"nick": "dumbo"},
			{"nick": "Dunedan", "name": "Daniel Roschka"},
			{"nick": "dvangennip", "name": "Doménique"},
			{"nick": "Echelon9", "name": "Rhys Kidd"},
			{"nick": "echotangoecho"},
			{"nick": "eihrul", "name": "Lee Salzman"},
			{"nick": "elexis", "name": "Alexander Heinsius"},
			{"nick": "EmjeR", "name": "Matthijs de Rijk"},
			{"nick": "EMontana"},
			{"nick": "ericb"},
			{"nick": "evanssthomas", "name": "Evans Thomas"},
			{"nick": "Evulant", "name": "Alexander S."},
			{"nick": "fabio", "name": "Fabio Pedretti"},
			{"nick": "falsevision", "name": "Mahdi Khodadadifard"},
			{"nick": "fatherbushido", "name": "Nicolas Tisserand"},
			{"nick": "fcxSanya", "name": "Alexander Olkhovskiy"},
			{"nick": "FeXoR", "name": "Florian Finke"},
			{"nick": "Fire Giant", "name": "Malte Schwarzkopf"},
			{"name": "Fork AD"},
			{"nick": "fpre", "name": "Frederick Stallmeyer"},
			{"nick": "Freagarach"},
			{"nick": "freenity", "name": "Anton Galitch"},
			{"nick": "Gallaecio", "name": "Adrián Chaves"},
			{"nick": "gbish (aka Iny)", "name": "Grant Bishop"},
			{"nick": "Gee", "name": "Gustav Larsson"},
			{"nick": "Gentz", "name": "Hal Gentz"},
			{"nick": "gerbilOFdoom"},
			{"nick": "godlikeldh"},
			{"nick": "greybeard", "name": "Joe Cocovich"},
			{"nick": "grillaz"},
			{"nick": "Grugnas", "name": "Giuseppe Tranchese"},
			{"nick": "gudo"},
			{"nick": "Guuts", "name": "Matthew Guttag"},
			{"nick": "h20", "name": "Daniel Wilhelm"},
			{"nick": "Hannibal_Barca", "name": "Clive Juhász S."},
			{"nick": "Haommin"},
			{"nick": "happyconcepts", "name": "Ben Bird"},
			{"nick": "historic_bruno", "name": "Ben Brian"},
			{"nick": "idanwin"},
			{"nick": "Imarok", "name": "J. S."},
			{"nick": "infyquest", "name": "Vijay Kiran Kamuju"},
			{"nick": "irishninja", "name": "Brian Broll"},
			{"nick": "IronNerd", "name": "Matthew McMullan"},
			{"nick": "Itms", "name": "Nicolas Auvray"},
			{"nick": "Jaison", "name": "Marco tom Suden"},
			{"nick": "jammus", "name": "James Scott"},
			{"nick": "javiergodas", "name": "Javier Godas Vieitez"},
			{"nick": "Jgwman"},
			{"nick": "JonBaer", "name": "Jon Baer"},
			{"nick": "Josh", "name": "Joshua J. Bakita"},
			{"nick": "joskar", "name": "Johnny Oskarsson"},
			{"nick": "jP_wanN", "name": "Jonas Platte"},
			{"nick": "Jubalbarca", "name": "James Baillie"},
			{"nick": "JubJub", "name": "Sebastian Vetter"},
			{"nick": "jurgemaister"},
			{"nick": "kabzerek", "name": "Grzegorz Kabza"},
			{"nick": "Kai", "name": "Kai Chen"},
			{"name": "Kareem Ergawy"},
			{"nick": "kevmo", "name": "Kevin Caffrey"},
			{"nick": "kezz", "name": "Graeme Kerry"},
			{"nick": "kingadami", "name": "Adam Winsor"},
			{"nick": "kingbasil", "name": "Giannis Fafalios"},
			{"nick": "Krinkle", "name": "Timo Tijhof"},
			{"nick": "lafferjm", "name": "Justin Lafferty"},
			{"nick": "LeanderH", "name": "Leander Hemelhof"},
			{"nick": "leper", "name": "Georg Kilzer"},
			{"nick": "Link Mauve", "name": "Emmanuel Gil Peyrot"},
			{"nick": "LittleDev"},
			{"nick": "livingaftermidnight", "name": "Will Dull"},
			{"nick": "Louhike"},
			{"nick": "lsdh"},
			{"nick": "Ludovic", "name": "Ludovic Rousseau"},
			{"nick": "luiko", "name": "Luis Carlos Garcia Barajas"},
			{"nick": "m0l0t0ph", "name": "Christoph Gielisch"},
			{"nick": "madmax", "name": "Abhijit Nandy"},
			{"nick": "madpilot", "name": "Guido Falsi"},
			{"nick": "markcho"},
			{"nick": "MarkT", "name": "Mark Thompson"},
			{"nick": "Markus"},
			{"nick": "Mate-86", "name": "Mate Kovacs"},
			{"nick": "Matei", "name": "Matei Zaharia"},
			{"nick": "MattDoerksen", "name": "Matt Doerksen"},
			{"nick": "mattlott", "name": "Matt Lott"},
			{"nick": "maveric", "name": "Anton Protko"},
			{"nick": "Micnasty", "name": "Travis Gorkin"},
			{"name": "Mikołaj \"Bajter\" Korcz"},
			{"nick": "mimo"},
			{"nick": "mk12", "name": "Mitchell Kember"},
			{"nick": "mmayfield45", "name": "Michael Mayfield"},
			{"nick": "mmoanis", "name": "Mohamed Moanis"},
			{"nick": "Molotov", "name": "Dario Alvarez"},
			{"nick": "mpmoreti", "name": "Marcos Paulo Moreti"},
			{"nick": "mreiland", "name": "Michael Reiland"},
			{"nick": "myconid"},
			{"nick": "nani", "name": "S. N."},
			{"nick": "nd3c3nt", "name": "Gavin Fowler"},
			{"nick": "Nescio"},
			{"nick": "niektb", "name": "Niek ten Brinke"},
			{"nick": "njm"},
			{"nick": "NoMonkey", "name": "John Mena"},
			{"nick": "notpete", "name": "Rich Cross"},
			{"nick": "nwtour"},
			{"nick": "odoaker", "name": "Ágoston Sipos"},
			{"nick": "Offensive ePeen", "name": "Jared Ryan Bills"},
			{"nick": "Ols", "name": "Oliver Whiteman"},
			{"nick": "olsner", "name": "Simon Brenner"},
			{"nick": "OptimusShepard", "name": "Pirmin Stanglmeier"},
			{"nick": "otero"},
			{"nick": "Palaxin", "name": "David A. Freitag"},
			{"name": "Paul Withers"},
			{"nick": "paulobezerr", "name": "Paulo George Gomes Bezerra"},
			{"nick": "pcpa", "name": "Paulo Andrade"},
			{"nick": "Pendingchaos"},
			{"nick": "PeteVasi", "name": "Pete Vasiliauskas"},
			{"nick": "pilino1234"},
			{"nick": "PingvinBetyar", "name": "Schronk Tamás"},
			{"nick": "plugwash", "name": "Peter Michael Green"},
			{"nick": "Polakrity"},
			{"nick": "Poya", "name": "Poya Manouchehri"},
			{"nick": "prefect", "name": "Nicolai Hähnle"},
			{"nick": "Prodigal Son"},
			{"nick": "pstumpf", "name": "Pascal Stumpf"},
			{"nick": "pyrolink", "name": "Andrew Decker"},
			{"nick": "quantumstate", "name": "Jonathan Waller"},
			{"nick": "QuickShot", "name": "Walter Krawec"},
			{"nick": "quonter"},
			{"nick": "qwertz"},
			{"nick": "Radagast"},
			{"nick": "Raj", "name": "Raj Sharma"},
			{"nick": "rapidelectron", "name": "Christian Weihsbach"},
			{"nick": "RedFox", "name": "Jorma Rebane"},
			{"nick": "RefinedCode"},
			{"nick": "Riemer"},
			{"name": "Rolf Sievers"},
			{"nick": "s0600204", "name": "Matthew Norwood"},
			{"nick": "sacha_vrand", "name": "Sacha Vrand"},
			{"nick": "SafaAlfulaij"},
			{"name": "Samuel Guarnieri"},
			{"nick": "Sandarac"},
			{"nick": "sanderd17", "name": "Sander Deryckere"},
			{"nick": "sathyam", "name": "Sathyam Vellal"},
			{"nick": "sbirmi", "name": "Sharad Birmiwal"},
			{"nick": "sbte", "name": "Sven Baars"},
			{"nick": "scroogie", "name": "André Gemünd"},
			{"nick": "scythetwirler", "name": "Casey X."},
			{"nick": "serveurix"},
			{"nick": "Shane", "name": "Shane Grant"},
			{"nick": "shh"},
			{"nick": "Silk", "name": "Josh Godsiff"},
			{"nick": "silure"},
			{"nick": "Simikolon", "name": "Yannick & Simon"},
			{"nick": "smiley", "name": "M. L."},
			{"nick": "Spahbod", "name": "Omid Davoodi"},
			{"nick": "Stan", "name": "Stanislas Dolcini"},
			{"nick": "Stefan"},
			{"nick": "stilz", "name": "Sławomir Zborowski"},
			{"nick": "stwf", "name": "Steven Fuchs"},
			{"nick": "svott", "name": "Sven Ott"},
			{"nick": "t4nk004"},
			{"nick": "tau"},
			{"nick": "tbm", "name": "Martin Michlmayr"},
			{"nick": "Teiresias"},
			{"nick": "temple"},
			{"nick": "texane"},
			{"nick": "thamlett", "name": "Timothy Hamlett"},
			{"nick": "thedrunkyak", "name": "Dan Fuhr"},
			{"nick": "TrinityDeath", "name": "Jethro Lu"},
			{"nick": "triumvir", "name": "Corin Schedler"},
			{"nick": "trompetin17", "name": "Juan Guillermo"},
			{"nick": "user1", "name": "A. C."},
			{"nick": "usey11"},
			{"nick": "vincent_c", "name": "Vincent Cheng"},
			{"nick": "vladislavbelov", "name": "Vladislav Belov"},
			{"nick": "vts", "name": "Jeroen DR"},
			{"nick": "wacko", "name": "Andrew Spiering"},
			{"nick": "WhiteTreePaladin", "name": "Brian Ashley"},
			{"nick": "wraitii", "name": "Lancelot de Ferrière le Vayer"},
			{"nick": "Xentelian", "name": "Mark Strawson"},
			{"nick": "Xienen", "name": "Dayle Flowers"},
			{"nick": "xtizer", "name": "Matt Green"},
			{"nick": "yashi", "name": "Yasushi Shoji"},
			{"nick": "Ykkrosh", "name": "Philip Taylor"},
			{"nick": "Yves"},
			{"nick": "Zeusthor", "name": "Jeffrey Tavares"},
			{"nick": "zoot"},
			{"nick": "zsol", "name": "Zsolt Dollenstein"},
			{"nick": "ztamas", "name": "Tamas Zolnai"},
			{"nick": "Zyi", "name": "Charles De Meulenaer"}
		]
	}
	]
}
